starting N 1 trials
Python located at /global/homes/s/stephey/.conda/envs/mpihome/bin/python

real	0m6.978s
user	0m0.066s
sys	0m0.032s
N 1 trial 1 completed

real	0m5.626s
user	0m0.062s
sys	0m0.072s
N 1 trial 2 completed

real	0m4.256s
user	0m0.045s
sys	0m0.082s
N 1 trial 3 completed

real	0m4.724s
user	0m0.060s
sys	0m0.067s
N 1 trial 4 completed

real	0m5.013s
user	0m0.062s
sys	0m0.070s
N 1 trial 5 completed
