config: highAI library: mkl benchmark: eigh_timeit.py arraysize: 1000 Min runtime (s): 0.4639505429659039
config: highMB library: mkl benchmark: eigh_timeit.py arraysize: 1000 Min runtime (s): 0.2230434640077874
config: highAI library: mkl benchmark: eigh_timeit.py arraysize: 5000 Min runtime (s): 8.591665362007916
config: highMB library: mkl benchmark: eigh_timeit.py arraysize: 5000 Min runtime (s): 4.753205668996088
config: highAI library: mkl benchmark: eigh_timeit.py arraysize: 10000 Min runtime (s): 27.336867662961595
config: highMB library: mkl benchmark: eigh_timeit.py arraysize: 10000 Min runtime (s): 18.824493332067505
config: highAI library: mkl benchmark: chol_timeit.py arraysize: 5000 Min runtime (s): 0.35844192502554506
config: highMB library: mkl benchmark: chol_timeit.py arraysize: 5000 Min runtime (s): 0.18594235798809677
config: highAI library: mkl benchmark: chol_timeit.py arraysize: 10000 Min runtime (s): 1.0884533890057355
config: highMB library: mkl benchmark: chol_timeit.py arraysize: 10000 Min runtime (s): 0.6520826950436458
config: highAI library: mkl benchmark: chol_timeit.py arraysize: 50000 Min runtime (s): 109.20438392600045
config: highMB library: mkl benchmark: chol_timeit.py arraysize: 50000 Min runtime (s): 54.230229824082926
config: highAI library: mkl benchmark: svd_timeit.py arraysize: 1000 Min runtime (s): 0.20448876696173102
config: highMB library: mkl benchmark: svd_timeit.py arraysize: 1000 Min runtime (s): 0.16268208401743323
config: highAI library: mkl benchmark: svd_timeit.py arraysize: 5000 Min runtime (s): 7.426128624938428
config: highMB library: mkl benchmark: svd_timeit.py arraysize: 5000 Min runtime (s): 5.196004561032169
config: highAI library: mkl benchmark: svd_timeit.py arraysize: 10000 Min runtime (s): 140.82946441799868
config: highMB library: mkl benchmark: svd_timeit.py arraysize: 10000 Min runtime (s): 58.72793079295661
config: highAI library: mkl benchmark: dot_timeit.py arraysize: 5000 Min runtime (s): 0.40335055696778
config: highMB library: mkl benchmark: dot_timeit.py arraysize: 5000 Min runtime (s): 0.6672296510078013
config: highAI library: mkl benchmark: dot_timeit.py arraysize: 10000 Min runtime (s): 3.7208316549658775
config: highMB library: mkl benchmark: dot_timeit.py arraysize: 10000 Min runtime (s): 2.727693854016252
config: highAI library: mkl benchmark: dot_timeit.py arraysize: 50000 Min runtime (s): 267.27793666301295
config: highMB library: mkl benchmark: dot_timeit.py arraysize: 50000 Min runtime (s): 233.2798048829427
config: highAI library: mkl-workaround benchmark: eigh_timeit.py arraysize: 1000 Min runtime (s): 0.09930138697382063
config: highMB library: mkl-workaround benchmark: eigh_timeit.py arraysize: 1000 Min runtime (s): 0.06965820398181677
config: highAI library: mkl-workaround benchmark: eigh_timeit.py arraysize: 5000 Min runtime (s): 3.0594532169634476
config: highMB library: mkl-workaround benchmark: eigh_timeit.py arraysize: 5000 Min runtime (s): 1.9089662060141563
config: highAI library: mkl-workaround benchmark: eigh_timeit.py arraysize: 10000 Min runtime (s): 25.999041211907752
config: highMB library: mkl-workaround benchmark: eigh_timeit.py arraysize: 10000 Min runtime (s): 15.537583208992146
config: highAI library: mkl-workaround benchmark: chol_timeit.py arraysize: 5000 Min runtime (s): 0.2263371329754591
config: highMB library: mkl-workaround benchmark: chol_timeit.py arraysize: 5000 Min runtime (s): 0.1475676220143214
config: highAI library: mkl-workaround benchmark: chol_timeit.py arraysize: 10000 Min runtime (s): 1.018287252052687
config: highMB library: mkl-workaround benchmark: chol_timeit.py arraysize: 10000 Min runtime (s): 0.5675472560105845
config: highAI library: mkl-workaround benchmark: chol_timeit.py arraysize: 50000 Min runtime (s): 92.99430905294139
config: highMB library: mkl-workaround benchmark: chol_timeit.py arraysize: 50000 Min runtime (s): 47.12164411006961
config: highAI library: mkl-workaround benchmark: svd_timeit.py arraysize: 1000 Min runtime (s): 0.18532358796801418
config: highMB library: mkl-workaround benchmark: svd_timeit.py arraysize: 1000 Min runtime (s): 0.12506999098695815
config: highAI library: mkl-workaround benchmark: svd_timeit.py arraysize: 5000 Min runtime (s): 7.770426074974239
config: highMB library: mkl-workaround benchmark: svd_timeit.py arraysize: 5000 Min runtime (s): 6.7667271009413525
config: highAI library: mkl-workaround benchmark: svd_timeit.py arraysize: 10000 Min runtime (s): 43.646669498994015
config: highMB library: mkl-workaround benchmark: svd_timeit.py arraysize: 10000 Min runtime (s): 31.668183895060793
config: highAI library: mkl-workaround benchmark: dot_timeit.py arraysize: 5000 Min runtime (s): 0.369581317063421
config: highMB library: mkl-workaround benchmark: dot_timeit.py arraysize: 5000 Min runtime (s): 0.345105943037197
config: highAI library: mkl-workaround benchmark: dot_timeit.py arraysize: 10000 Min runtime (s): 2.7735290080308914
config: highMB library: mkl-workaround benchmark: dot_timeit.py arraysize: 10000 Min runtime (s): 2.9314361759461462
config: highAI library: mkl-workaround benchmark: dot_timeit.py arraysize: 50000 Min runtime (s): 272.24988020502497
config: highMB library: mkl-workaround benchmark: dot_timeit.py arraysize: 50000 Min runtime (s): 307.5109772239812
config: highAI library: openblas benchmark: eigh_timeit.py arraysize: 1000 Min runtime (s): 0.28944791201502085
config: highMB library: openblas benchmark: eigh_timeit.py arraysize: 1000 Min runtime (s): 0.2055494049564004
config: highAI library: openblas benchmark: eigh_timeit.py arraysize: 5000 Min runtime (s): 10.197271632030606
config: highMB library: openblas benchmark: eigh_timeit.py arraysize: 5000 Min runtime (s): 6.452881603036076
config: highAI library: openblas benchmark: eigh_timeit.py arraysize: 10000 Min runtime (s): 66.75856148696039
config: highMB library: openblas benchmark: eigh_timeit.py arraysize: 10000 Min runtime (s): 52.92719046201091
config: highAI library: openblas benchmark: chol_timeit.py arraysize: 5000 Min runtime (s): 0.3430445099947974
config: highMB library: openblas benchmark: chol_timeit.py arraysize: 5000 Min runtime (s): 0.349299160996452
config: highAI library: openblas benchmark: chol_timeit.py arraysize: 10000 Min runtime (s): 2.4243936779676005
config: highMB library: openblas benchmark: chol_timeit.py arraysize: 10000 Min runtime (s): 2.2079713349230587
config: highAI library: openblas benchmark: chol_timeit.py arraysize: 50000 Min runtime (s): 90.34141781495418
config: highMB library: openblas benchmark: chol_timeit.py arraysize: 50000 Min runtime (s): 89.59532325994223
config: highAI library: openblas benchmark: svd_timeit.py arraysize: 1000 Min runtime (s): 0.5479185989825055
config: highMB library: openblas benchmark: svd_timeit.py arraysize: 1000 Min runtime (s): 0.35112495499197394
config: highAI library: openblas benchmark: svd_timeit.py arraysize: 5000 Min runtime (s): 33.66281523311045
config: highMB library: openblas benchmark: svd_timeit.py arraysize: 5000 Min runtime (s): 27.007401084061712
config: highAI library: openblas benchmark: svd_timeit.py arraysize: 10000 Min runtime (s): 308.02592427493073
config: highMB library: openblas benchmark: svd_timeit.py arraysize: 10000 Min runtime (s): 276.0353522829246
config: highAI library: openblas benchmark: dot_timeit.py arraysize: 5000 Min runtime (s): 0.78395068901591
config: highMB library: openblas benchmark: dot_timeit.py arraysize: 5000 Min runtime (s): 0.6120858819922432
config: highAI library: openblas benchmark: dot_timeit.py arraysize: 10000 Min runtime (s): 3.346201696083881
config: highMB library: openblas benchmark: dot_timeit.py arraysize: 10000 Min runtime (s): 3.3444139470811933
config: highAI library: openblas benchmark: dot_timeit.py arraysize: 50000 Min runtime (s): 207.84574509598315
config: highMB library: openblas benchmark: dot_timeit.py arraysize: 50000 Min runtime (s): 218.57161327800713
